<svg width="20" height="20" viewBox="0 0 20 20" fill="none" xmlns="http://www.w3.org/2000/svg">
<path d="M15.0026 1.66669H12.5026C11.3975 1.66669 10.3377 2.10567 9.55633 2.88708C8.77492 3.66848 8.33594 4.72828 8.33594 5.83335V8.33335H5.83594V11.6667H8.33594V18.3334H11.6693V11.6667H14.1693L15.0026 8.33335H11.6693V5.83335C11.6693 5.61234 11.7571 5.40038 11.9133 5.2441C12.0696 5.08782 12.2816 5.00002 12.5026 5.00002H15.0026V1.66669Z" stroke="#537B74" stroke-width="2" stroke-linecap="round" stroke-linejoin="round"/>
</svg>
