<svg width="16" height="16" viewBox="0 0 16 16" fill="none" xmlns="http://www.w3.org/2000/svg">
<g clip-path="url(#clip0_922_518)">
<path d="M11.332 1.33331H4.66536C2.82442 1.33331 1.33203 2.8257 1.33203 4.66665V11.3333C1.33203 13.1743 2.82442 14.6666 4.66536 14.6666H11.332C13.173 14.6666 14.6654 13.1743 14.6654 11.3333V4.66665C14.6654 2.8257 13.173 1.33331 11.332 1.33331Z" stroke="#DFE6E5" stroke-width="2" stroke-linecap="round" stroke-linejoin="round"/>
<path d="M10.6678 7.57999C10.75 8.13482 10.6553 8.70146 10.3969 9.19933C10.1386 9.6972 9.72987 10.1009 9.22886 10.3531C8.72784 10.6053 8.16007 10.6931 7.6063 10.6039C7.05252 10.5148 6.54095 10.2534 6.14433 9.85676C5.74772 9.46015 5.48626 8.94857 5.39715 8.3948C5.30804 7.84102 5.39582 7.27325 5.64799 6.77224C5.90017 6.27122 6.3039 5.86248 6.80176 5.60415C7.29963 5.34582 7.86628 5.25105 8.42111 5.33332C8.98706 5.41724 9.51101 5.68096 9.91557 6.08553C10.3201 6.49009 10.5839 7.01404 10.6678 7.57999Z" stroke="#DFE6E5" stroke-width="2" stroke-linecap="round" stroke-linejoin="round"/>
<path d="M11.668 4.33331H11.6746" stroke="#DFE6E5" stroke-width="2" stroke-linecap="round" stroke-linejoin="round"/>
</g>
<defs>
<clipPath id="clip0_922_518">
<rect width="16" height="16" fill="white"/>
</clipPath>
</defs>
</svg>
