<svg width="20" height="20" viewBox="0 0 20 20" fill="none" xmlns="http://www.w3.org/2000/svg">
<path d="M16.388 15.7191L7.2634 3.91085L6.72666 3.37411H4.04297L14.241 16.2558H16.388V15.7191Z" fill="#537B74"/>
<path d="M3.03657 2.8H2.63727L2.8764 3.11978L8.56798 10.7308L2.85322 16.905L2.54236 17.2409H3H4.31163H4.39903L4.45841 17.1767L9.3976 11.8403L13.3763 17.1606L13.4363 17.2409H13.5365H18H18.3993L18.1602 16.9211L12.1427 8.8745L17.4542 3.13585L17.765 2.8H17.3074H15.9958H15.9084L15.849 2.86415L11.3131 7.76497L7.66026 2.88022L7.60027 2.8H7.50009H3.03657ZM14.1205 15.8745L5.36472 4.16625H6.91579L15.6715 15.8745H14.1205Z" fill="#537B74" stroke="#537B74" stroke-width="0.4"/>
</svg>
